<svg xmlns="http://www.w3.org/2000/svg" width="24" height="24" version="1">
 <rect style="fill:#32302f" width="18" height="12" x="3" y="2" rx=".75" ry=".75"/>
 <rect style="opacity:0.1" width="18" height="12" x="3" y="3.5" rx=".75" ry=".75"/>
 <rect style="fill:#ebddb2" width="18" height="12" x="3" y="4" rx=".75" ry=".75"/>
 <rect style="opacity:0.1" width="18" height="12" x="3" y="5.5" rx=".75" ry=".75"/>
 <rect style="fill:#32302f" width="18" height="12" x="3" y="6" rx=".75" ry=".75"/>
 <rect style="opacity:0.2" width="20" height="14" x="2" y="8.5" rx="1" ry="1"/>
 <rect style="fill:#ebddb2" width="20" height="14" x="2" y="8" rx="1" ry="1"/>
 <rect style="opacity:0.2" width="6" height="2" x="9" y="13.5" rx=".5" ry=".5"/>
 <rect style="fill:#32302f" width="6" height="2" x="9" y="13" rx=".5" ry=".5"/>
 <path style="opacity:0.1;fill:#ffffff" d="M 3.75,2 C 3.3345,2 3,2.3345 3,2.75 V 3.25 C 3,2.8345 3.3345,2.5 3.75,2.5 H 20.25 C 20.666,2.5 21,2.8345 21,3.25 V 2.75 C 21,2.3345 20.666,2 20.25,2 Z"/>
 <path style="opacity:0.1;fill:#ffffff" d="M 3.75,4 C 3.3345,4 3,4.3345 3,4.75 V 5.25 C 3,4.8345 3.3345,4.5 3.75,4.5 H 20.25 C 20.666,4.5 21,4.8345 21,5.25 V 4.75 C 21,4.3345 20.666,4 20.25,4 Z"/>
 <path style="opacity:0.1;fill:#ffffff" d="M 3.75,6 C 3.3345,6 3,6.3345 3,6.75 V 7.25 C 3,6.8345 3.3345,6.5 3.75,6.5 H 20.25 C 20.666,6.5 21,6.8345 21,7.25 V 6.75 C 21,6.3345 20.666,6 20.25,6 Z"/>
</svg>
